{
  "page": 2,
  "total_results": 20000,
  "total_pages": 1000,
  "results": [
    {
      "original_name": "Hanna",
      "genre_ids": [
        18,
        10759
      ],
      "name": "Hanna",
      "popularity": 129.034,
      "origin_country": [
        "US"
      ],
      "vote_count": 8,
      "first_air_date": "2019-03-28",
      "backdrop_path": "/edCwGsZOuaLJs1IbXqYHgy6rs0j.jpg",
      "original_language": "en",
      "id": 54155,
      "vote_average": 7.5,
      "overview": "This thriller and coming-of-age drama follows the journey of an extraordinary young girl as she evades the relentless pursuit of an off-book CIA agent and tries to unearth the truth behind who she is. Based on the 2011 Joe Wright film.",
      "poster_path": "/5nSSkcM3TgpllZ7yTyBOQEgAX36.jpg"
    },
    {
      "original_name": "South Park",
      "genre_ids": [
        16,
        35
      ],
      "name": "South Park",
      "popularity": 125.325,
      "origin_country": [
        "US"
      ],
      "vote_count": 1022,
      "first_air_date": "1997-08-13",
      "backdrop_path": "/mSDKNVvDfitFE6Fb6fSSl5DQmgS.jpg",
      "original_language": "en",
      "id": 2190,
      "vote_average": 7.8,
      "overview": "Follows the misadventures of four irreverent grade-schoolers in the quiet, dysfunctional town of South Park, Colorado.",
      "poster_path": "/v9zc0cZpy5aPSfAy6Tgb6I1zWgV.jpg"
    },
    {
      "original_name": "ワンピース",
      "genre_ids": [
        16,
        35,
        10759
      ],
      "name": "One Piece",
      "popularity": 114.929,
      "origin_country": [
        "JP"
      ],
      "vote_count": 207,
      "first_air_date": "1999-10-20",
      "backdrop_path": "/xgs7zAF5VSGAK0QstH1Q0ivybXz.jpg",
      "original_language": "ja",
      "id": 37854,
      "vote_average": 7.7,
      "overview": "Years ago, the fearsome pirate king Gol D. Roger was executed, leaving a huge pile of treasure and the famous \"One Piece\" behind. Whoever claims the \"One Piece\" will be named the new pirate king. Monkey D. Luffy, a boy who consumed one of the \"Devil's Fruits\", has it in his head that he'll follow in the footsteps of his idol, the pirate Shanks, and find the One Piece. It helps, of course, that his body has the properties of rubber and he's surrounded by a bevy of skilled fighters and thieves to help him along the way. Monkey D. Luffy brings a bunch of his crew followed by, Roronoa Zoro, Nami, Usopp, Sanji, Tony-Tony Chopper, Nico Robin, Franky, and Brook. They will do anything to get the One Piece and become King of the Pirates!",
      "poster_path": "/yeJyZkhO7WS4jJl2xqQjnRTHwuE.jpg"
    },
    {
      "original_name": "The Blacklist",
      "genre_ids": [
        80,
        18,
        9648
      ],
      "name": "The Blacklist",
      "popularity": 113.098,
      "origin_country": [
        "US"
      ],
      "vote_count": 923,
      "first_air_date": "2013-09-23",
      "backdrop_path": "/fHwiAqIKragaCbNJo9Qs4lrccIN.jpg",
      "original_language": "en",
      "id": 46952,
      "vote_average": 7,
      "overview": "Raymond \"Red\" Reddington, one of the FBI's most wanted fugitives, surrenders in person at FBI Headquarters in Washington, D.C. He claims that he and the FBI have the same interests: bringing down dangerous criminals and terrorists. In the last two decades, he's made a list of criminals and terrorists that matter the most but the FBI cannot find because it does not know they exist. Reddington calls this \"The Blacklist\". Reddington will co-operate, but insists that he will speak only to Elizabeth Keen, a rookie FBI profiler.",
      "poster_path": "/bgbQCW4fE9b6wSOSC6Fb4FfVzsW.jpg"
    },
    {
      "original_name": "NCIS",
      "genre_ids": [
        80,
        18,
        10759
      ],
      "name": "NCIS",
      "popularity": 108.131,
      "origin_country": [
        "US"
      ],
      "vote_count": 726,
      "first_air_date": "2003-09-23",
      "backdrop_path": "/nymeWHYQ1JaWP2wyNW5a5WHiDCd.jpg",
      "original_language": "en",
      "id": 4614,
      "vote_average": 6.7,
      "overview": "From murder and espionage to terrorism and stolen submarines, a team of special agents investigates any crime that has a shred of evidence connected to Navy and Marine Corps personnel, regardless of rank or position.",
      "poster_path": "/eoj15m14Zpf2bUWXqNIs7itZK9w.jpg"
    },
    {
      "original_name": "Lucifer",
      "genre_ids": [
        80,
        10765
      ],
      "name": "Lucifer",
      "popularity": 105.059,
      "origin_country": [
        "US"
      ],
      "vote_count": 901,
      "first_air_date": "2016-01-25",
      "backdrop_path": "/6kZCuvbirx6ibJfaWqwV2p90yPI.jpg",
      "original_language": "en",
      "id": 63174,
      "vote_average": 7.4,
      "overview": "Bored and unhappy as the Lord of Hell, Lucifer Morningstar abandoned his throne and retired to Los Angeles, where he has teamed up with LAPD detective Chloe Decker to take down criminals. But the longer he's away from the underworld, the greater the threat that the worst of humanity could escape.",
      "poster_path": "/wmOuYyqVaczBLXxQNFSaRfAUgPz.jpg"
    },
    {
      "original_name": "NCIS: Los Angeles",
      "genre_ids": [
        80,
        18,
        9648,
        10759
      ],
      "name": "NCIS: Los Angeles",
      "popularity": 104.356,
      "origin_country": [
        "US"
      ],
      "vote_count": 304,
      "first_air_date": "2009-09-22",
      "backdrop_path": "/dQ8xZxtZtZTq74RjTycO1RKoqi0.jpg",
      "original_language": "en",
      "id": 17610,
      "vote_average": 6.5,
      "overview": "The exploits of the Los Angeles–based Office of Special Projects (OSP), an elite division of the Naval Criminal Investigative Service that specializes in undercover assignments.",
      "poster_path": "/n00Z61xNqk84AY9oT7wTdHuYZWn.jpg"
    },
    {
      "original_name": "どろろ",
      "genre_ids": [
        10759
      ],
      "name": "Dororo",
      "popularity": 101.898,
      "origin_country": [
        "JP"
      ],
      "vote_count": 0,
      "first_air_date": "1969-04-06",
      "backdrop_path": null,
      "original_language": "ja",
      "id": 21298,
      "vote_average": 0,
      "overview": "Hyakkimaru is a young man who lacks 48 body parts because they were taken from him by demons before birth, as payment by his father, Kagemitsu Daigo, to obtain his wish to take over the country. When the baby boy was born he was missing 48 parts of his body, and thus was abandoned—thrown into a river. Hyakkimaru has grown up and now has obtained fake body parts so he can eliminate the 48 demons that were made from his body, and to retrieve his missing parts. Along for the adventure is the boy thief, Dororo, with whom he becomes friends.",
      "poster_path": "/9iWAoUOORXerFkuUhDuCpLi4iNZ.jpg"
    },
    {
      "original_name": "Hawaii Five-0",
      "genre_ids": [
        28,
        80,
        18
      ],
      "name": "Hawaii Five-0",
      "popularity": 100.554,
      "origin_country": [
        "US"
      ],
      "vote_count": 335,
      "first_air_date": "2010-09-20",
      "backdrop_path": "/2wig5p3n4AMHGjedvYk7ZgJ4481.jpg",
      "original_language": "en",
      "id": 32798,
      "vote_average": 6.3,
      "overview": "Steve McGarrett returns home to Oahu, in order to find his father's killer. The governor offers him the chance to run his own task force (Five-0). Steve's team is joined by Chin Ho Kelly, Danny \"Danno\" Williams, and Kono Kalakaua.",
      "poster_path": "/gEbD5od43txhKQ7BaNCjN7q4txR.jpg"
    },
    {
      "original_name": "ソードアート・オンライン",
      "genre_ids": [
        16,
        10759,
        10765
      ],
      "name": "Sword Art Online",
      "popularity": 98.954,
      "origin_country": [
        "JP"
      ],
      "vote_count": 182,
      "first_air_date": "2012-07-08",
      "backdrop_path": "/1ENifuXpviC2kEZ1Ya08EyN9SYg.jpg",
      "original_language": "ja",
      "id": 45782,
      "vote_average": 7.5,
      "overview": "The players of a virtual reality MMORPG, Sword Art Online, are trapped and fighting for their very lives. After it is announced that the only way to leave the game is by beating it, Kirito—a very powerful swordsman—and his friends take on a quest to free all the minds trapped in Aincrad.",
      "poster_path": "/nc33LuqbsT0g2NYcVTVaMLsvbXu.jpg"
    },
    {
      "original_name": "Marvel's Agents of S.H.I.E.L.D.",
      "genre_ids": [
        18,
        10759,
        10765
      ],
      "name": "Marvel's Agents of S.H.I.E.L.D.",
      "popularity": 98.876,
      "origin_country": [
        "US"
      ],
      "vote_count": 1233,
      "first_air_date": "2013-09-24",
      "backdrop_path": "/qtr5i6hOm6oVzTYl3jOQAYP3oc7.jpg",
      "original_language": "en",
      "id": 1403,
      "vote_average": 6.7,
      "overview": "Agent Phil Coulson of S.H.I.E.L.D. (Strategic Homeland Intervention, Enforcement and Logistics Division) puts together a team of agents to investigate the new, the strange and the unknown around the globe, protecting the ordinary from the extraordinary.",
      "poster_path": "/wbzXfB4dWSq051hWbzQIidSvdFN.jpg"
    },
    {
      "original_name": "七つの大罪",
      "genre_ids": [
        16,
        10759,
        10765
      ],
      "name": "The Seven Deadly Sins",
      "popularity": 98.849,
      "origin_country": [
        "JP"
      ],
      "vote_count": 80,
      "first_air_date": "2014-10-05",
      "backdrop_path": "/n5Ty1KJIRNCXlDHDjcPpUgp57tr.jpg",
      "original_language": "ja",
      "id": 62104,
      "vote_average": 7.9,
      "overview": "The “Seven Deadly Sins”—a group of evil knights who conspired to overthrow the kingdom of Britannia—were said to have been eradicated by the Holy Knights, although some claim that they still live. Ten years later, the Holy Knights have staged a Coup d'état and assassinated the king, becoming the new, tyrannical rulers of the kingdom. Elizabeth, the king's only daughter, sets out on a journey to find the “Seven Deadly Sins,” and to enlist their help in taking back the kingdom.",
      "poster_path": "/gxTojpKEOtue85EEFlozwRbDXwJ.jpg"
    },
    {
      "original_name": "Law & Order: Special Victims Unit",
      "genre_ids": [
        80,
        18
      ],
      "name": "Law & Order: Special Victims Unit",
      "popularity": 98.08,
      "origin_country": [
        "US"
      ],
      "vote_count": 602,
      "first_air_date": "1999-09-20",
      "backdrop_path": "/kOvt2BOOwSAQCT8yo3pM3X2GXjh.jpg",
      "original_language": "en",
      "id": 2734,
      "vote_average": 6.3,
      "overview": "In the criminal justice system, sexually-based offenses are considered especially heinous. In New York City, the dedicated detectives who investigate these vicious felonies are members of an elite squad known as the Special Victims Unit. These are their stories.",
      "poster_path": "/ydSvHgksuB8Ix0V05QEZBKrnIcg.jpg"
    },
    {
      "original_name": "Prison Break",
      "genre_ids": [
        80,
        18,
        10759
      ],
      "name": "Prison Break",
      "popularity": 96.82,
      "origin_country": [
        "US"
      ],
      "vote_count": 1084,
      "first_air_date": "2005-08-29",
      "backdrop_path": "/92OPBZpLc82y8CzOtrQ8P9RDvIN.jpg",
      "original_language": "en",
      "id": 2288,
      "vote_average": 7.5,
      "overview": "Due to a political conspiracy, an innocent man is sent to death row and his only hope is his brother, who makes it his mission to deliberately get himself sent to the same prison in order to break the both of them out, from the inside out.",
      "poster_path": "/5E1BhkCgjLBlqx557Z5yzcN0i88.jpg"
    },
    {
      "original_name": "Two and a Half Men",
      "genre_ids": [
        35
      ],
      "name": "Two and a Half Men",
      "popularity": 96.224,
      "origin_country": [
        "US"
      ],
      "vote_count": 654,
      "first_air_date": "2003-09-22",
      "backdrop_path": "/27cshLy9anL9G0g6tBQjWkPACx5.jpg",
      "original_language": "en",
      "id": 2691,
      "vote_average": 6.3,
      "overview": "A hedonistic jingle writer's free-wheeling life comes to an abrupt halt when his brother and 10-year-old nephew move into his beach-front house.",
      "poster_path": "/A9QDK4OWpv41W27kCv0LXe30k9S.jpg"
    },
    {
      "original_name": "ドラゴンボールゼット",
      "genre_ids": [
        16,
        35,
        10759,
        10765
      ],
      "name": "Dragon Ball Z",
      "popularity": 91.913,
      "origin_country": [
        "JP"
      ],
      "vote_count": 271,
      "first_air_date": "1989-04-26",
      "backdrop_path": "/ydf1CeiBLfdxiyNTpskM0802TKl.jpg",
      "original_language": "ja",
      "id": 12971,
      "vote_average": 7.9,
      "overview": "Dragon Ball Z is a Japanese animated television series produced by Toei Animation. Dragon Ball Z is the sequel to the Dragon Ball anime and adapts the last 26 volumes of the original 42 volume Dragon Ball manga series created by Akira Toriyama The series Debut in 1988-1995 on Weekly Shounen Jump. Dragon Ball Z depicts the continuing adventures of Goku and his companions to defend against an assortment of villains which seek to destroy or rule the Earth.\n\nThe anime first aired in Japan from April 25, 1989, to January 31, 1996, and was dubbed in several territories around the world, including the United States, Europe, and in Latin America.",
      "poster_path": "/dBsDWUcdfbuZwglgyeeQ9ChRoS4.jpg"
    },
    {
      "original_name": "Legacies",
      "genre_ids": [
        18,
        9648,
        10765
      ],
      "name": "Legacies",
      "popularity": 91.624,
      "origin_country": [
        "US"
      ],
      "vote_count": 78,
      "first_air_date": "2018-10-25",
      "backdrop_path": "/tIYb76SgqjUJ6XLFwBrk4gvGNtn.jpg",
      "original_language": "en",
      "id": 79460,
      "vote_average": 6.5,
      "overview": "In a place where young witches, vampires, and werewolves are nurtured to be their best selves in spite of their worst impulses, Klaus Mikaelson’s daughter, 17-year-old Hope Mikaelson, Alaric Saltzman’s twins, Lizzie and Josie Saltzman, among others, come of age into heroes and villains at The Salvatore School for the Young and Gifted.",
      "poster_path": "/rb64COqdpRRfWOc6gWTfC7WxzXP.jpg"
    },
    {
      "original_name": "Breaking Bad",
      "genre_ids": [
        18
      ],
      "name": "Breaking Bad",
      "popularity": 91.116,
      "origin_country": [
        "US"
      ],
      "vote_count": 3162,
      "first_air_date": "2008-01-20",
      "backdrop_path": "/eSzpy96DwBujGFj0xMbXBcGcfxX.jpg",
      "original_language": "en",
      "id": 1396,
      "vote_average": 8.4,
      "overview": "When Walter White, a New Mexico chemistry teacher, is diagnosed with Stage III cancer and given a prognosis of only two years left to live. He becomes filled with a sense of fearlessness and an unrelenting desire to secure his family's financial future at any cost as he enters the dangerous world of drugs and crime.",
      "poster_path": "/1yeVJox3rjo2jBKrrihIMj7uoS9.jpg"
    },
    {
      "original_name": "Pretty Little Liars: The Perfectionists",
      "genre_ids": [
        80,
        18,
        9648
      ],
      "name": "Pretty Little Liars: The Perfectionists",
      "popularity": 90.949,
      "origin_country": [
        "US"
      ],
      "vote_count": 8,
      "first_air_date": "2019-03-20",
      "backdrop_path": "/lmrdNoIpHIUgvXDGRbF4eyOQVKR.jpg",
      "original_language": "en",
      "id": 79863,
      "vote_average": 8,
      "overview": "In Beacon Heights, a seemingly perfect town, a group of three college friends struggle with the stress of being overachievers. In the aftermath of the town’s first murder, each Perfectionist hides behind a secret, a lie and an alibi.",
      "poster_path": "/eRwTePABqHHYofflK6CFZ6ik3wl.jpg"
    },
    {
      "original_name": "Doctor Who",
      "genre_ids": [
        18,
        10759,
        10765
      ],
      "name": "Doctor Who",
      "popularity": 90.274,
      "origin_country": [
        "GB"
      ],
      "vote_count": 1384,
      "first_air_date": "2005-03-26",
      "backdrop_path": "/mQ9yeCuofNatSyErUKAPD1uOq8Q.jpg",
      "original_language": "en",
      "id": 57243,
      "vote_average": 6.9,
      "overview": "The Doctor is a Time Lord: a 900 year old alien with 2 hearts, part of a gifted civilization who mastered time travel. The Doctor saves planets for a living – more of a hobby actually, and the Doctor's very, very good at it.",
      "poster_path": "/3EcYZhBMAvVw4czcDLg9Sd0FuzQ.jpg"
    }
  ]
}